13,13,13		// [background color 1]
13,13,13		// [background color 2]
165,237,45
168,237,29
160,237,6
182,237,71
178,237,59
174,237,47
186,237,83
190,237,95
188,237,89
169,237,33
182,237,71
166,237,24
165,225,45
182,237,71
178,237,59
174,237,47
165,225,45		// [osc 1]
186,237,83		// [osc 2]
182,237,71		// [osc 3]
178,237,59		// [osc 4]
174,237,47		// [osc 5]
91,124,25		// [peak color]
